control_unit_waves.vcd
$date
	Wed Apr 22 07:38:12 2026
$end
$version
	Icarus Verilog
$end
$timescale
	1ps
$end
$scope module ControlUnit_tb $end
$var wire 1 ! RegWrite $end
$var wire 1 " RegDst $end
$var wire 1 # MemWr $end
$var wire 1 $ MemToReg $end
$var wire 1 % MemRd $end
$var wire 1 & Jump $end
$var wire 1 ' Branch $end
$var wire 1 ( ALUsrc $end
$var wire 2 ) ALUOp [1:0] $end
$var reg 4 * opcode [3:0] $end
$var integer 32 + i [31:0] $end
$scope module uut $end
$var wire 4 , opcode [3:0] $end
$var reg 2 - ALUOp [1:0] $end
$var reg 1 ( ALUsrc $end
$var reg 1 ' Branch $end
$var reg 1 & Jump $end
$var reg 1 % MemRd $end
$var reg 1 $ MemToReg $end
$var reg 1 # MemWr $end
$var reg 1 " RegDst $end
$var reg 1 ! RegWrite $end
$upscope $end
$upscope $end
$enddefinitions $end
$comment Show the parameter values. $end
$dumpall
$end
#0
$dumpvars
b10 -
b0 ,
b0 +
b0 *
b10 )
1(
0'
0&
1%
1$
0#
0"
1!
$end
#10000
1#
b10 )
b10 -
0%
0!
0$
1(
b1 *
b1 ,
b1 +
#20000
1!
1"
b0 )
b0 -
0#
0(
b10 *
b10 ,
b10 +
#30000
1!
1"
b11 *
b11 ,
b11 +
#40000
1!
1"
b100 *
b100 ,
b100 +
#50000
1!
1"
b101 *
b101 ,
b101 +
#60000
1!
1"
b110 *
b110 ,
b110 +
#70000
1!
1"
b111 *
b111 ,
b111 +
#80000
1!
1"
b1000 *
b1000 ,
b1000 +
#90000
1!
1"
b1001 *
b1001 ,
b1001 +
#100000
0!
0"
b1010 *
b1010 ,
b1010 +
#110000
b1 )
b1 -
1'
b1011 *
b1011 ,
b1011 +
#120000
b1 )
b1 -
1'
b1100 *
b1100 ,
b1100 +
#130000
1&
b0 )
b0 -
0'
b1101 *
b1101 ,
b1101 +
#140000
0&
b1110 *
b1110 ,
b1110 +
#150000
b1111 *
b1111 ,
b1111 +
#160000
b10000 +
