waves/starcore_execution.vcd
$date
	Wed May 20 20:57:43 2026
$end
$version
	Icarus Verilog
$end
$timescale
	1ps
$end
$scope module StarCore1_tb $end
$var reg 1 ! clk $end
$var reg 1 " reset $end
$var integer 32 # i [31:0] $end
$scope module uut $end
$var wire 1 ! clk $end
$var wire 1 " reset $end
$var wire 4 $ wire_opcode [3:0] $end
$var wire 1 % wire_RegWrite $end
$var wire 1 & wire_RegDst $end
$var wire 1 ' wire_MemWr $end
$var wire 1 ( wire_MemToReg $end
$var wire 1 ) wire_MemRd $end
$var wire 1 * wire_Jump $end
$var wire 1 + wire_CopEn $end
$var wire 1 , wire_Branch $end
$var wire 1 - wire_ALUSrc $end
$var wire 2 . wire_ALUOp [1:0] $end
$scope module main_cu $end
$var wire 4 / opcode [3:0] $end
$var reg 2 0 ALUOp [1:0] $end
$var reg 1 - ALUsrc $end
$var reg 1 , Branch $end
$var reg 1 + CopEn $end
$var reg 1 * Jump $end
$var reg 1 ) MemRd $end
$var reg 1 ( MemToReg $end
$var reg 1 ' MemWr $end
$var reg 1 & RegDst $end
$var reg 1 % RegWrite $end
$upscope $end
$scope module main_dp $end
$var wire 2 1 ALUOp [1:0] $end
$var wire 1 - ALUSrc $end
$var wire 1 , Branch $end
$var wire 1 + CopEn $end
$var wire 1 * Jump $end
$var wire 1 ) MemRd $end
$var wire 1 ( MemToReg $end
$var wire 1 ' MemWr $end
$var wire 1 & RegDst $end
$var wire 1 % RegWrite $end
$var wire 1 ! clk $end
$var wire 1 2 cru_stall $end
$var wire 1 3 cru_start $end
$var wire 1 4 gpr_write_en $end
$var wire 1 " reset $end
$var wire 1 5 take_branch $end
$var wire 3 6 write_reg_addr [2:0] $end
$var wire 16 7 write_data [15:0] $end
$var wire 16 8 sign_extended_imm [15:0] $end
$var wire 16 9 read_data2 [15:0] $end
$var wire 16 : read_data1 [15:0] $end
$var wire 16 ; pc_plus_2 [15:0] $end
$var wire 4 < opcode [3:0] $end
$var wire 16 = memory_read_data [15:0] $end
$var wire 16 > mem_read_data_muxed [15:0] $end
$var wire 16 ? jump_target [15:0] $end
$var wire 1 @ is_bne $end
$var wire 1 A is_beq $end
$var wire 16 B current_instruction [15:0] $end
$var wire 16 C cru_sin [15:0] $end
$var wire 1 D cru_done $end
$var wire 16 E cru_cos [15:0] $end
$var wire 1 F cru_busy $end
$var wire 16 G branch_target [15:0] $end
$var wire 16 H branch_offset [15:0] $end
$var wire 1 I alu_zero $end
$var wire 16 J alu_result [15:0] $end
$var wire 16 K alu_input_b [15:0] $end
$var wire 3 L alu_control_code [2:0] $end
$var reg 16 M pc [15:0] $end
$scope module alu_ctrl $end
$var wire 2 N ALUOp [1:0] $end
$var wire 4 O opcode [3:0] $end
$var reg 3 P ALUcnt [2:0] $end
$upscope $end
$scope module cru_unit $end
$var wire 1 ! clk $end
$var wire 1 " reset $end
$var wire 1 3 start $end
$var wire 16 Q angle_in [15:0] $end
$var parameter 2 R DONE $end
$var parameter 16 S HALF_PI_Q3_13 $end
$var parameter 2 T IDLE $end
$var parameter 16 U K_INIT $end
$var parameter 16 V PI_Q3_13 $end
$var parameter 2 W RUNNING $end
$var reg 1 F busy $end
$var reg 16 X cos_out [15:0] $end
$var reg 1 D done $end
$var reg 4 Y iter [3:0] $end
$var reg 1 Z negate $end
$var reg 16 [ sin_out [15:0] $end
$var reg 2 \ state [1:0] $end
$var reg 16 ] x [15:0] $end
$var reg 16 ^ y [15:0] $end
$var reg 16 _ z [15:0] $end
$upscope $end
$scope module data_mem $end
$var wire 1 ) MemRd $end
$var wire 1 ' MemWr $end
$var wire 3 ` addr [2:0] $end
$var wire 1 ! clk $end
$var wire 16 a write_data [15:0] $end
$var wire 16 b read_data [15:0] $end
$upscope $end
$scope module inst_mem $end
$var wire 16 c instruction [15:0] $end
$var wire 16 d pc [15:0] $end
$upscope $end
$scope module main_alu $end
$var wire 3 e ALUcnt [2:0] $end
$var wire 16 f b [15:0] $end
$var wire 1 I zero $end
$var wire 16 g a [15:0] $end
$var reg 16 h result [15:0] $end
$upscope $end
$scope module register_file $end
$var wire 1 ! clk $end
$var wire 3 i read_addr1 [2:0] $end
$var wire 3 j read_addr2 [2:0] $end
$var wire 3 k write_addr [2:0] $end
$var wire 16 l write_data [15:0] $end
$var wire 1 4 write_en $end
$var wire 16 m read_data2 [15:0] $end
$var wire 16 n read_data1 [15:0] $end
$upscope $end
$upscope $end
$upscope $end
$upscope $end
$scope module StarCore1_tb $end
$scope module uut $end
$scope module main_dp $end
$scope module register_file $end
$var reg 16 o \registers[0] [15:0] $end
$upscope $end
$upscope $end
$upscope $end
$upscope $end
$scope module StarCore1_tb $end
$scope module uut $end
$scope module main_dp $end
$scope module register_file $end
$var reg 16 p \registers[1] [15:0] $end
$upscope $end
$upscope $end
$upscope $end
$upscope $end
$scope module StarCore1_tb $end
$scope module uut $end
$scope module main_dp $end
$scope module register_file $end
$var reg 16 q \registers[2] [15:0] $end
$upscope $end
$upscope $end
$upscope $end
$upscope $end
$scope module StarCore1_tb $end
$scope module uut $end
$scope module main_dp $end
$scope module register_file $end
$var reg 16 r \registers[3] [15:0] $end
$upscope $end
$upscope $end
$upscope $end
$upscope $end
$scope module StarCore1_tb $end
$scope module uut $end
$scope module main_dp $end
$scope module register_file $end
$var reg 16 s \registers[4] [15:0] $end
$upscope $end
$upscope $end
$upscope $end
$upscope $end
$scope module StarCore1_tb $end
$scope module uut $end
$scope module main_dp $end
$scope module register_file $end
$var reg 16 t \registers[5] [15:0] $end
$upscope $end
$upscope $end
$upscope $end
$upscope $end
$scope module StarCore1_tb $end
$scope module uut $end
$scope module main_dp $end
$scope module register_file $end
$var reg 16 u \registers[6] [15:0] $end
$upscope $end
$upscope $end
$upscope $end
$upscope $end
$scope module StarCore1_tb $end
$scope module uut $end
$scope module main_dp $end
$scope module register_file $end
$var reg 16 v \registers[7] [15:0] $end
$upscope $end
$upscope $end
$upscope $end
$upscope $end
$scope module StarCore1_tb $end
$scope module uut $end
$scope module main_dp $end
$scope module data_mem $end
$var reg 16 w \dmem[0] [15:0] $end
$upscope $end
$upscope $end
$upscope $end
$upscope $end
$scope module StarCore1_tb $end
$scope module uut $end
$scope module main_dp $end
$scope module data_mem $end
$var reg 16 x \dmem[1] [15:0] $end
$upscope $end
$upscope $end
$upscope $end
$upscope $end
$scope module StarCore1_tb $end
$scope module uut $end
$scope module main_dp $end
$scope module data_mem $end
$var reg 16 y \dmem[2] [15:0] $end
$upscope $end
$upscope $end
$upscope $end
$upscope $end
$scope module StarCore1_tb $end
$scope module uut $end
$scope module main_dp $end
$scope module data_mem $end
$var reg 16 z \dmem[3] [15:0] $end
$upscope $end
$upscope $end
$upscope $end
$upscope $end
$scope module StarCore1_tb $end
$scope module uut $end
$scope module main_dp $end
$scope module data_mem $end
$var reg 16 { \dmem[4] [15:0] $end
$upscope $end
$upscope $end
$upscope $end
$upscope $end
$scope module StarCore1_tb $end
$scope module uut $end
$scope module main_dp $end
$scope module data_mem $end
$var reg 16 | \dmem[5] [15:0] $end
$upscope $end
$upscope $end
$upscope $end
$upscope $end
$scope module StarCore1_tb $end
$scope module uut $end
$scope module main_dp $end
$scope module data_mem $end
$var reg 16 } \dmem[6] [15:0] $end
$upscope $end
$upscope $end
$upscope $end
$upscope $end
$scope module StarCore1_tb $end
$scope module uut $end
$scope module main_dp $end
$scope module data_mem $end
$var reg 16 ~ \dmem[7] [15:0] $end
$upscope $end
$upscope $end
$upscope $end
$upscope $end
$enddefinitions $end
$comment Show the parameter values. $end
$dumpall
b1 W
b110010010001001 V
b10011011011101 U
b0 T
b11001001000100 S
b10 R
$end
#0
$dumpvars
b1000 ~
b111 }
b110 |
b101 {
b100 z
b11 y
b10 x
b1 w
bx v
bx u
bx t
bx s
bx r
bx q
bx p
bx o
bx n
bx m
bx l
bx k
bx j
bx i
bx h
bx g
bx f
bx e
bx d
bx c
bx b
bx a
bx `
bx _
bx ^
bx ]
bx \
bx [
xZ
bx Y
bx X
bx Q
bx P
bx O
bx N
bx M
bx L
bx K
bx J
xI
bx0 H
bx G
xF
bx E
xD
bx C
bx B
xA
x@
bx0 ?
bx >
bx =
bx <
bx ;
bx :
bx 9
bx 8
bx 7
bx 6
x5
x4
x3
x2
bx 1
bx 0
bx /
bx .
x-
x,
x+
x*
x)
x(
x'
x&
x%
bx $
b1000 #
1"
0!
$end
#5000
b1 7
b1 l
b1 >
b1 =
b1 b
b0 `
1I
b0 J
b0 h
03
b0 K
b0 f
02
05
14
b10 G
b0 H
b0 L
b0 P
b0 e
b0 :
b0 Q
b0 g
b0 n
b10 6
b10 k
0+
0*
b10 .
b10 0
b10 1
b10 N
0,
0'
1)
1%
1(
1-
0&
b0 8
b0 O
b10 j
b0 i
0A
0@
b0 $
b0 /
b0 <
b100000000 ?
b10000000 B
b10000000 c
b0 _
b0 ^
b0 ]
b0 C
b0 [
b0 E
b0 X
0Z
b0 Y
0D
0F
b0 \
b10 ;
b0 M
b0 d
1!
#10000
0!
0"
#15000
b10 7
b10 l
b10 >
b10 =
b10 b
b1 `
0I
b1 J
b1 h
b1 K
b1 f
b10 H
b1 6
b1 k
b10000010 ?
b1 8
b1 j
b1000001 B
b1000001 c
bx 9
bx a
bx m
b110 G
b100 ;
b10 M
b10 d
b1 q
1!
#20000
0!
#25000
b0 >
b11 `
b0 =
b0 b
b11 7
b11 l
b11 J
b11 h
b1 K
b1 f
b100000 H
b10 :
b10 Q
b10 g
b10 n
b10 6
b10 k
1&
b0 .
b0 0
b0 1
b0 N
0)
1%
0(
0-
b10100100000 ?
b10000 8
b10 O
b10 j
b1 i
b10 $
b10 /
b10 <
b1 9
b1 a
b1 m
b10001010010000 B
b10001010010000 c
b10 p
b100110 G
b110 ;
b100 M
b100 d
1!
#30000
0!
#35000
b100 7
b100 l
04
b100 `
b100 H
b10 6
b10 k
b10 .
b10 0
b10 1
b10 N
1'
1-
0%
0&
b100 J
b100 h
b10100000100 ?
b10 8
b1 O
b1 $
b1 /
b1 <
b10 K
b10 f
b1001010000010 B
b1001010000010 c
b11 9
b11 a
b11 m
b1100 G
b1000 ;
b110 M
b110 d
b11 q
1!
#40000
0!
#45000
b1111111111111110 7
b1111111111111110 l
b110 `
b1111111111111110 J
b1111111111111110 h
14
b10 K
b10 f
b100000 H
b1 L
b1 P
b1 e
b10 9
b10 a
b10 m
b0 :
b0 Q
b0 g
b0 n
b10 6
b10 k
1%
1&
b0 .
b0 0
b0 1
b0 N
0'
0-
b10100000 ?
b10000 8
b11 O
b1 j
b0 i
b11 $
b11 /
b11 <
b11000001010000 B
b11000001010000 c
b11 {
b101010 G
b1010 ;
b1000 M
b1000 d
1!
#50000
0!
#55000
b0 7
b0 l
b0 `
1I
b0 J
b0 h
b10 L
b10 P
b10 e
1%
1&
b111 O
b111 $
b111 /
b111 <
b111000001010000 B
b111000001010000 c
b101100 G
b1100 ;
b1010 M
b1010 d
b1111111111111110 q
1!
#60000
0!
#65000
b10 7
b10 l
b10 `
0I
b10 J
b10 h
b11 L
b11 P
b11 e
1%
1&
b1000 O
b1000 $
b1000 /
b1000 <
b1000000001010000 B
b1000000001010000 c
b0 q
b101110 G
b1110 ;
b1100 M
b1100 d
1!
#70000
0!
#75000
b1 7
b1 l
b1 `
b1 J
b1 h
b111 L
b111 P
b111 e
1%
1&
b1001 O
b1001 $
b1001 /
b1001 <
b1001000001010000 B
b1001000001010000 c
b110000 G
b10000 ;
b1110 M
b1110 d
b10 q
1!
#80000
0!
#85000
b0 7
b0 l
b0 `
1I
b0 J
b0 h
b0 K
b0 f
b0 H
b0 L
b0 P
b0 e
b0 9
b0 a
b0 m
b0 6
b0 k
1%
1&
b0 ?
b0 8
b10 O
b0 j
b10 $
b10 /
b10 <
b10000000000000 B
b10000000000000 c
b1 q
b10010 G
b10010 ;
b10000 M
b10000 d
1!
#90000
0!
#95000
b1111111111111110 7
b1111111111111110 l
b110 `
05
b1 6
b1 k
0I
b1111111111111110 J
b1111111111111110 h
b10 K
b10 f
04
b10 H
b1 L
b1 P
b1 e
b10 9
b10 a
b10 m
b1 .
b1 0
b1 1
b1 N
1,
0%
0&
b10000010 ?
b1 8
b1011 O
b1 j
1A
b1011 $
b1011 /
b1011 <
b1011000001000001 B
b1011000001000001 c
b10110 G
b10100 ;
b10010 M
b10010 d
1!
#100000
0!
#105000
15
b0 H
b1 L
b1 P
b1 e
b1 .
b1 0
b1 1
b1 N
1,
b10000000 ?
b0 8
b1100 O
0A
1@
b1100 $
b1100 /
b1100 <
b1100000001000000 B
b1100000001000000 c
b10110 G
b10110 ;
b10100 M
b10100 d
1!
#110000
0!
#115000
b0 7
b0 l
b0 `
1I
b0 J
b0 h
b0 K
b0 f
05
b0 L
b0 P
b0 e
b0 9
b0 a
b0 m
b0 6
b0 k
1*
b0 .
b0 0
b0 1
b0 N
0,
b0 ?
b1101 O
b0 j
0@
b1101 $
b1101 /
b1101 <
b1101000000000000 B
b1101000000000000 c
b11000 G
b11000 ;
b10110 M
b10110 d
1!
#120000
0!
#125000
b1 7
b1 l
b1 >
b1 =
b1 b
14
b1 9
b1 a
b1 m
b10 6
b10 k
b10 .
b10 0
b10 1
b10 N
1)
1%
1(
1-
0*
b100000000 ?
b0 O
b10 j
b0 $
b0 /
b0 <
b10000000 B
b10000000 c
b10 G
b10 ;
b0 M
b0 d
1!
#130000
0!
#135000
b10 7
b10 l
b10 >
b10 =
b10 b
b1 `
0I
b1 J
b1 h
b1 K
b1 f
b10 H
b10 9
b10 a
b10 m
b1 6
b1 k
b10000010 ?
b1 8
b1 j
b1000001 B
b1000001 c
b110 G
b100 ;
b10 M
b10 d
b1 q
1!
#140000
0!
#145000
b0 >
b11 `
b0 =
b0 b
b11 7
b11 l
b11 J
b11 h
b1 K
b1 f
b100000 H
b1 9
b1 a
b1 m
b10 :
b10 Q
b10 g
b10 n
b10 6
b10 k
1&
b0 .
b0 0
b0 1
b0 N
0)
1%
0(
0-
b10100100000 ?
b10000 8
b10 O
b10 j
b1 i
b10 $
b10 /
b10 <
b10001010010000 B
b10001010010000 c
b10 p
b100110 G
b110 ;
b100 M
b100 d
1!
#150000
0!
#155000
b100 7
b100 l
04
b100 `
b100 H
b10 6
b10 k
b10 .
b10 0
b10 1
b10 N
1'
1-
0%
0&
b100 J
b100 h
b10100000100 ?
b10 8
b1 O
b1 $
b1 /
b1 <
b10 K
b10 f
b1001010000010 B
b1001010000010 c
b11 9
b11 a
b11 m
b1100 G
b1000 ;
b110 M
b110 d
b11 q
1!
#160000
0!
#165000
b1111111111111110 7
b1111111111111110 l
b110 `
b1111111111111110 J
b1111111111111110 h
14
b10 K
b10 f
b100000 H
b1 L
b1 P
b1 e
b10 9
b10 a
b10 m
b0 :
b0 Q
b0 g
b0 n
b10 6
b10 k
1%
1&
b0 .
b0 0
b0 1
b0 N
0'
0-
b10100000 ?
b10000 8
b11 O
b1 j
b0 i
b11 $
b11 /
b11 <
b11000001010000 B
b11000001010000 c
b11 {
b101010 G
b1010 ;
b1000 M
b1000 d
1!
#170000
0!
#175000
b0 7
b0 l
b0 `
1I
b0 J
b0 h
b10 L
b10 P
b10 e
1%
1&
b111 O
b111 $
b111 /
b111 <
b111000001010000 B
b111000001010000 c
b101100 G
b1100 ;
b1010 M
b1010 d
b1111111111111110 q
1!
#180000
0!
#185000
b10 7
b10 l
b10 `
0I
b10 J
b10 h
b11 L
b11 P
b11 e
1%
1&
b1000 O
b1000 $
b1000 /
b1000 <
b1000000001010000 B
b1000000001010000 c
b0 q
b101110 G
b1110 ;
b1100 M
b1100 d
1!
#190000
0!
#195000
b1 7
b1 l
b1 `
b1 J
b1 h
b111 L
b111 P
b111 e
1%
1&
b1001 O
b1001 $
b1001 /
b1001 <
b1001000001010000 B
b1001000001010000 c
b110000 G
b10000 ;
b1110 M
b1110 d
b10 q
1!
#200000
0!
#205000
b0 7
b0 l
b0 `
1I
b0 J
b0 h
b0 K
b0 f
b0 H
b0 L
b0 P
b0 e
b0 9
b0 a
b0 m
b0 6
b0 k
1%
1&
b0 ?
b0 8
b10 O
b0 j
b10 $
b10 /
b10 <
b10000000000000 B
b10000000000000 c
b1 q
b10010 G
b10010 ;
b10000 M
b10000 d
1!
#210000
0!
#215000
b1111111111111110 7
b1111111111111110 l
b110 `
05
b1 6
b1 k
0I
b1111111111111110 J
b1111111111111110 h
b10 K
b10 f
04
b10 H
b1 L
b1 P
b1 e
b10 9
b10 a
b10 m
b1 .
b1 0
b1 1
b1 N
1,
0%
0&
b10000010 ?
b1 8
b1011 O
b1 j
1A
b1011 $
b1011 /
b1011 <
b1011000001000001 B
b1011000001000001 c
b10110 G
b10100 ;
b10010 M
b10010 d
1!
#220000
0!
#225000
15
b0 H
b1 L
b1 P
b1 e
b1 .
b1 0
b1 1
b1 N
1,
b10000000 ?
b0 8
b1100 O
0A
1@
b1100 $
b1100 /
b1100 <
b1100000001000000 B
b1100000001000000 c
b10110 G
b10110 ;
b10100 M
b10100 d
1!
#230000
0!
#235000
b0 7
b0 l
b0 `
1I
b0 J
b0 h
b0 K
b0 f
05
b0 L
b0 P
b0 e
b0 9
b0 a
b0 m
b0 6
b0 k
1*
b0 .
b0 0
b0 1
b0 N
0,
b0 ?
b1101 O
b0 j
0@
b1101 $
b1101 /
b1101 <
b1101000000000000 B
b1101000000000000 c
b11000 G
b11000 ;
b10110 M
b10110 d
1!
#240000
0!
#245000
b1 7
b1 l
b1 >
b1 =
b1 b
14
b1 9
b1 a
b1 m
b10 6
b10 k
b10 .
b10 0
b10 1
b10 N
1)
1%
1(
1-
0*
b100000000 ?
b0 O
b10 j
b0 $
b0 /
b0 <
b10000000 B
b10000000 c
b10 G
b10 ;
b0 M
b0 d
1!
#250000
0!
#255000
b10 7
b10 l
b10 >
b10 =
b10 b
b1 `
0I
b1 J
b1 h
b1 K
b1 f
b10 H
b10 9
b10 a
b10 m
b1 6
b1 k
b10000010 ?
b1 8
b1 j
b1000001 B
b1000001 c
b110 G
b100 ;
b10 M
b10 d
b1 q
1!
#260000
0!
#265000
b0 >
b11 `
b0 =
b0 b
b11 7
b11 l
b11 J
b11 h
b1 K
b1 f
b100000 H
b1 9
b1 a
b1 m
b10 :
b10 Q
b10 g
b10 n
b10 6
b10 k
1&
b0 .
b0 0
b0 1
b0 N
0)
1%
0(
0-
b10100100000 ?
b10000 8
b10 O
b10 j
b1 i
b10 $
b10 /
b10 <
b10001010010000 B
b10001010010000 c
b10 p
b100110 G
b110 ;
b100 M
b100 d
1!
#270000
0!
#275000
b100 7
b100 l
04
b100 `
b100 H
b10 6
b10 k
b10 .
b10 0
b10 1
b10 N
1'
1-
0%
0&
b100 J
b100 h
b10100000100 ?
b10 8
b1 O
b1 $
b1 /
b1 <
b10 K
b10 f
b1001010000010 B
b1001010000010 c
b11 9
b11 a
b11 m
b1100 G
b1000 ;
b110 M
b110 d
b11 q
1!
#280000
0!
#285000
b1111111111111110 7
b1111111111111110 l
b110 `
b1111111111111110 J
b1111111111111110 h
14
b10 K
b10 f
b100000 H
b1 L
b1 P
b1 e
b10 9
b10 a
b10 m
b0 :
b0 Q
b0 g
b0 n
b10 6
b10 k
1%
1&
b0 .
b0 0
b0 1
b0 N
0'
0-
b10100000 ?
b10000 8
b11 O
b1 j
b0 i
b11 $
b11 /
b11 <
b11000001010000 B
b11000001010000 c
b11 {
b101010 G
b1010 ;
b1000 M
b1000 d
1!
#290000
0!
#295000
b0 7
b0 l
b0 `
1I
b0 J
b0 h
b10 L
b10 P
b10 e
1%
1&
b111 O
b111 $
b111 /
b111 <
b111000001010000 B
b111000001010000 c
b101100 G
b1100 ;
b1010 M
b1010 d
b1111111111111110 q
1!
#300000
0!
#305000
b10 7
b10 l
b10 `
0I
b10 J
b10 h
b11 L
b11 P
b11 e
1%
1&
b1000 O
b1000 $
b1000 /
b1000 <
b1000000001010000 B
b1000000001010000 c
b0 q
b101110 G
b1110 ;
b1100 M
b1100 d
1!
#310000
0!
#315000
b1 7
b1 l
b1 `
b1 J
b1 h
b111 L
b111 P
b111 e
1%
1&
b1001 O
b1001 $
b1001 /
b1001 <
b1001000001010000 B
b1001000001010000 c
b110000 G
b10000 ;
b1110 M
b1110 d
b10 q
1!
#320000
0!
#325000
b0 7
b0 l
b0 `
1I
b0 J
b0 h
b0 K
b0 f
b0 H
b0 L
b0 P
b0 e
b0 9
b0 a
b0 m
b0 6
b0 k
1%
1&
b0 ?
b0 8
b10 O
b0 j
b10 $
b10 /
b10 <
b10000000000000 B
b10000000000000 c
b1 q
b10010 G
b10010 ;
b10000 M
b10000 d
1!
#330000
0!
#335000
b1111111111111110 7
b1111111111111110 l
b110 `
05
b1 6
b1 k
0I
b1111111111111110 J
b1111111111111110 h
b10 K
b10 f
04
b10 H
b1 L
b1 P
b1 e
b10 9
b10 a
b10 m
b1 .
b1 0
b1 1
b1 N
1,
0%
0&
b10000010 ?
b1 8
b1011 O
b1 j
1A
b1011 $
b1011 /
b1011 <
b1011000001000001 B
b1011000001000001 c
b10110 G
b10100 ;
b10010 M
b10010 d
1!
#340000
0!
#345000
15
b0 H
b1 L
b1 P
b1 e
b1 .
b1 0
b1 1
b1 N
1,
b10000000 ?
b0 8
b1100 O
0A
1@
b1100 $
b1100 /
b1100 <
b1100000001000000 B
b1100000001000000 c
b10110 G
b10110 ;
b10100 M
b10100 d
1!
#350000
0!
#355000
b0 7
b0 l
b0 `
1I
b0 J
b0 h
b0 K
b0 f
05
b0 L
b0 P
b0 e
b0 9
b0 a
b0 m
b0 6
b0 k
1*
b0 .
b0 0
b0 1
b0 N
0,
b0 ?
b1101 O
b0 j
0@
b1101 $
b1101 /
b1101 <
b1101000000000000 B
b1101000000000000 c
b11000 G
b11000 ;
b10110 M
b10110 d
1!
#360000
0!
#365000
b1 7
b1 l
b1 >
b1 =
b1 b
14
b1 9
b1 a
b1 m
b10 6
b10 k
b10 .
b10 0
b10 1
b10 N
1)
1%
1(
1-
0*
b100000000 ?
b0 O
b10 j
b0 $
b0 /
b0 <
b10000000 B
b10000000 c
b10 G
b10 ;
b0 M
b0 d
1!
#370000
0!
#375000
b10 7
b10 l
b10 >
b10 =
b10 b
b1 `
0I
b1 J
b1 h
b1 K
b1 f
b10 H
b10 9
b10 a
b10 m
b1 6
b1 k
b10000010 ?
b1 8
b1 j
b1000001 B
b1000001 c
b110 G
b100 ;
b10 M
b10 d
b1 q
1!
#380000
0!
#385000
b0 >
b11 `
b0 =
b0 b
b11 7
b11 l
b11 J
b11 h
b1 K
b1 f
b100000 H
b1 9
b1 a
b1 m
b10 :
b10 Q
b10 g
b10 n
b10 6
b10 k
1&
b0 .
b0 0
b0 1
b0 N
0)
1%
0(
0-
b10100100000 ?
b10000 8
b10 O
b10 j
b1 i
b10 $
b10 /
b10 <
b10001010010000 B
b10001010010000 c
b10 p
b100110 G
b110 ;
b100 M
b100 d
1!
#390000
0!
#395000
b100 7
b100 l
04
b100 `
b100 H
b10 6
b10 k
b10 .
b10 0
b10 1
b10 N
1'
1-
0%
0&
b100 J
b100 h
b10100000100 ?
b10 8
b1 O
b1 $
b1 /
b1 <
b10 K
b10 f
b1001010000010 B
b1001010000010 c
b11 9
b11 a
b11 m
b1100 G
b1000 ;
b110 M
b110 d
b11 q
1!
#400000
0!
#405000
b1111111111111110 7
b1111111111111110 l
b110 `
b1111111111111110 J
b1111111111111110 h
14
b10 K
b10 f
b100000 H
b1 L
b1 P
b1 e
b10 9
b10 a
b10 m
b0 :
b0 Q
b0 g
b0 n
b10 6
b10 k
1%
1&
b0 .
b0 0
b0 1
b0 N
0'
0-
b10100000 ?
b10000 8
b11 O
b1 j
b0 i
b11 $
b11 /
b11 <
b11000001010000 B
b11000001010000 c
b11 {
b101010 G
b1010 ;
b1000 M
b1000 d
1!
